{
  "Comment.nvim": { "branch": "master", "commit": "e30b7f2008e52442154b66f7c519bfd2f1e32acb" },
  "LuaSnip": { "branch": "master", "commit": "c9b9a22904c97d0eb69ccb9bab76037838326817" },
  "cmp-nvim-lsp": { "branch": "main", "commit": "99290b3ec1322070bcfb9e846450a46f6efa50f0" },
  "cmp-path": { "branch": "main", "commit": "91ff86cd9c29299a64f968ebb45846c485725f23" },
  "cmp_luasnip": { "branch": "master", "commit": "98d9cb5c2c38532bd9bdb481067b20fea8f32e90" },
  "conform.nvim": { "branch": "master", "commit": "70019124aa4f2e6838be9fbd2007f6d13b27a96d" },
  "fidget.nvim": { "branch": "main", "commit": "a0abbf18084b77d28bc70e24752e4f4fd54aea17" },
  "friendly-snippets": { "branch": "main", "commit": "efff286dd74c22f731cdec26a70b46e5b203c619" },
  "lazy.nvim": { "branch": "main", "commit": "d8f26efd456190241afd1b0f5235fe6fdba13d4a" },
  "lualine.nvim": { "branch": "master", "commit": "2a5bae925481f999263d6f5ed8361baef8df4f83" },
  "melange-nvim": { "branch": "master", "commit": "09f64d1d2c78198116c405fc21515718bb61d7eb" },
  "mini.nvim": { "branch": "main", "commit": "890db26e37bb28d8a95f05570dd0d9fa757b698b" },
  "neodev.nvim": { "branch": "main", "commit": "46aa467dca16cf3dfe27098042402066d2ae242d" },
  "nvim-autopairs": { "branch": "master", "commit": "d2f791ceeb26d04d87aa54343bc94e8ad8d7be1c" },
  "nvim-cmp": { "branch": "main", "commit": "8c82d0bd31299dbff7f8e780f5e06d2283de9678" },
  "nvim-lspconfig": { "branch": "master", "commit": "88157521e890fe7fdf18bee22438875edd6300a6" },
  "nvim-treesitter": { "branch": "master", "commit": "306dd6e9dc806db1d79568d26e1c9b6c98b95fbc" },
  "nvim-web-devicons": { "branch": "master", "commit": "aafa5c187a15701a7299a392b907ec15d9a7075f" },
  "oil.nvim": { "branch": "master", "commit": "7041528bdedb350ad66e650684deec8456e053cc" },
  "plenary.nvim": { "branch": "master", "commit": "2d9b06177a975543726ce5c73fca176cedbffe9d" },
  "project.nvim": { "branch": "main", "commit": "8c6bad7d22eef1b71144b401c9f74ed01526a4fb" },
  "refactoring.nvim": { "branch": "master", "commit": "2db6d378e873de31d18ade549c2edba64ff1c2e3" },
  "scratch.nvim": { "branch": "main", "commit": "6230634669d29bf05ab4e85b3c7df8fd8402dcb4" },
  "telescope-fzf-native.nvim": { "branch": "main", "commit": "dae2eac9d91464448b584c7949a31df8faefec56" },
  "telescope.nvim": { "branch": "0.1.x", "commit": "a0bbec21143c7bc5f8bb02e0005fa0b982edc026" },
  "todo-comments.nvim": { "branch": "main", "commit": "ae0a2afb47cf7395dc400e5dc4e05274bf4fb9e0" },
  "undotree": { "branch": "master", "commit": "2556c6800b210b2096b55b66e74b4cc1d9ebbe4f" },
  "vim-fugitive": { "branch": "master", "commit": "174230d6a7f2df94705a7ffd8d5413e27ec10a80" },
  "vim-ledger": { "branch": "master", "commit": "dbc683e24bd5338b8c12540227a58b2d247e097a" },
  "which-key.nvim": { "branch": "main", "commit": "1f8d414f61e0b05958c342df9b6a4c89ce268766" },
  "yadm-git.vim": { "branch": "master", "commit": "e611bbdf6e7c2c0b3e265ca9edea83ebb91e7f9a" }
}
